{
  "firstRateOpeningsCount": 1,
  "firstRateOpeningsPrice": 150,
  "secondRateOpeningsCount": 5,
  "secondRateOpeningsPrice": 490,
  "thirdRateOpeningsCount": 10,
  "thirdRateOpeningsPrice": 790,
  "fourthRateOpeningsCount": 20,
  "fourthRateOpeningsPrice": 990,

  "firstRateDaysCount": 1,
  "firstRateDaysPrice": 390,
  "secondRateDaysCount": 7,
  "secondRateDaysPrice": 690,
  "thirdRateDaysCount": 14,
  "thirdRateDaysPrice": 890,
  "fourthRateDaysCount": 30,
  "fourthRateDaysPrice": 990,

  "successUrl": "http://webpaser/error/WaitingForPayment",
  "receiver": "111111111111111",
  "label": "11111111",
  "supportEmail" : "support@email.com"
}