{
  "userName": "User Name",
  "goodVotes": 1,
  "badVotes": 2,
  "outdateVotes": 3,
  "rateType": 1,
  "accessDateTime": "02-10-2016 03:00",
  "openingBalance": 5,
  "freeDays": 1,
  "freeOpenings": 2,
  "maxFreeDaysCount": 5,
  "maxFreeOpeningsCount": 10,
  "blackListItemsCount": "30 000"
}